{
    "Date": "2022-04-09T11:30:00+03:00",
    "PreviousDate": "2022-04-08T11:30:00+03:00",
    "PreviousURL": "\/\/www.cbr-xml-daily.ru\/archive\/2022\/04\/08\/daily_json.js",
    "Timestamp": "2022-04-10T19:00:00+03:00",
    "Valute": {
        "AUD": {
            "ID": "R01010",
            "NumCode": "036",
            "CharCode": "AUD",
            "Nominal": 1,
            "Name": "Австралийский доллар",
            "Value": 56.0103,
            "Previous": 57.0614
        },
        "AZN": {
            "ID": "R01020A",
            "NumCode": "944",
            "CharCode": "AZN",
            "Nominal": 1,
            "Name": "Азербайджанский манат",
            "Value": 44.0295,
            "Previous": 44.8557
        },
        "GBP": {
            "ID": "R01035",
            "NumCode": "826",
            "CharCode": "GBP",
            "Nominal": 1,
            "Name": "Фунт стерлингов Соединенного королевства",
            "Value": 97.7991,
            "Previous": 99.8479
        },
        "AMD": {
            "ID": "R01060",
            "NumCode": "051",
            "CharCode": "AMD",
            "Nominal": 100,
            "Name": "Армянских драмов",
            "Value": 15.7351,
            "Previous": 15.989
        },
        "BYN": {
            "ID": "R01090B",
            "NumCode": "933",
            "CharCode": "BYN",
            "Nominal": 1,
            "Name": "Белорусский рубль",
            "Value": 27.0246,
            "Previous": 27.1273
        },
        "BGN": {
            "ID": "R01100",
            "NumCode": "975",
            "CharCode": "BGN",
            "Nominal": 1,
            "Name": "Болгарский лев",
            "Value": 41.776,
            "Previous": 42.5861
        },
        "BRL": {
            "ID": "R01115",
            "NumCode": "986",
            "CharCode": "BRL",
            "Nominal": 1,
            "Name": "Бразильский реал",
            "Value": 15.7848,
            "Previous": 16.2368
        },
        "HUF": {
            "ID": "R01135",
            "NumCode": "348",
            "CharCode": "HUF",
            "Nominal": 100,
            "Name": "Венгерских форинтов",
            "Value": 21.5595,
            "Previous": 21.7244
        },
        "HKD": {
            "ID": "R01200",
            "NumCode": "344",
            "CharCode": "HKD",
            "Nominal": 10,
            "Name": "Гонконгских долларов",
            "Value": 95.6551,
            "Previous": 97.4626
        },
        "DKK": {
            "ID": "R01215",
            "NumCode": "208",
            "CharCode": "DKK",
            "Nominal": 1,
            "Name": "Датская крона",
            "Value": 10.9852,
            "Previous": 11.1986
        },
        "USD": {
            "ID": "R01235",
            "NumCode": "840",
            "CharCode": "USD",
            "Nominal": 1,
            "Name": "Доллар США",
            "Value": 74.8501,
            "Previous": 76.2547
        },
        "EUR": {
            "ID": "R01239",
            "NumCode": "978",
            "CharCode": "EUR",
            "Nominal": 1,
            "Name": "Евро",
            "Value": 81.7064,
            "Previous": 83.293
        },
        "INR": {
            "ID": "R01270",
            "NumCode": "356",
            "CharCode": "INR",
            "Nominal": 100,
            "Name": "Индийских рупий",
            "Value": 98.7376,
            "Previous": 10.059
        },
        "KZT": {
            "ID": "R01335",
            "NumCode": "398",
            "CharCode": "KZT",
            "Nominal": 100,
            "Name": "Казахстанских тенге",
            "Value": 16.3118,
            "Previous": 16.4975
        },
        "CAD": {
            "ID": "R01350",
            "NumCode": "124",
            "CharCode": "CAD",
            "Nominal": 1,
            "Name": "Канадский доллар",
            "Value": 59.4804,
            "Previous": 60.9599
        },
        "KGS": {
            "ID": "R01370",
            "NumCode": "417",
            "CharCode": "KGS",
            "Nominal": 100,
            "Name": "Киргизских сомов",
            "Value": 80.7754,
            "Previous": 83.8373
        },
        "CNY": {
            "ID": "R01375",
            "NumCode": "156",
            "CharCode": "CNY",
            "Nominal": 1,
            "Name": "Китайский юань",
            "Value": 11.7611,
            "Previous": 11.9862
        },
        "MDL": {
            "ID": "R01500",
            "NumCode": "498",
            "CharCode": "MDL",
            "Nominal": 10,
            "Name": "Молдавских леев",
            "Value": 40.7489,
            "Previous": 41.5432
        },
        "NOK": {
            "ID": "R01535",
            "NumCode": "578",
            "CharCode": "NOK",
            "Nominal": 10,
            "Name": "Норвежских крон",
            "Value": 85.4717,
            "Previous": 87.1971
        },
        "PLN": {
            "ID": "R01565",
            "NumCode": "985",
            "CharCode": "PLN",
            "Nominal": 1,
            "Name": "Польский злотый",
            "Value": 17.5195,
            "Previous": 17.9922
        },
        "RON": {
            "ID": "R01585F",
            "NumCode": "946",
            "CharCode": "RON",
            "Nominal": 1,
            "Name": "Румынский лей",
            "Value": 16.4669,
            "Previous": 16.8043
        },
        "XDR": {
            "ID": "R01589",
            "NumCode": "960",
            "CharCode": "XDR",
            "Nominal": 1,
            "Name": "СДР (специальные права заимствования)",
            "Value": 102.6352,
            "Previous": 104.6291
        },
        "SGD": {
            "ID": "R01625",
            "NumCode": "702",
            "CharCode": "SGD",
            "Nominal": 1,
            "Name": "Сингапурский доллар",
            "Value": 54.9076,
            "Previous": 56.0614
        },
        "TJS": {
            "ID": "R01670",
            "NumCode": "972",
            "CharCode": "TJS",
            "Nominal": 10,
            "Name": "Таджикских сомони",
            "Value": 59.8801,
            "Previous": 61.0038
        },
        "TRY": {
            "ID": "R01700J",
            "NumCode": "949",
            "CharCode": "TRY",
            "Nominal": 10,
            "Name": "Турецких лир",
            "Value": 50.7989,
            "Previous": 51.7255
        },
        "TMT": {
            "ID": "R01710A",
            "NumCode": "934",
            "CharCode": "TMT",
            "Nominal": 1,
            "Name": "Новый туркменский манат",
            "Value": 21.3857,
            "Previous": 21.7871
        },
        "UZS": {
            "ID": "R01717",
            "NumCode": "860",
            "CharCode": "UZS",
            "Nominal": 10000,
            "Name": "Узбекских сумов",
            "Value": 65.8746,
            "Previous": 67.0633
        },
        "UAH": {
            "ID": "R01720",
            "NumCode": "980",
            "CharCode": "UAH",
            "Nominal": 10,
            "Name": "Украинских гривен",
            "Value": 25.3377,
            "Previous": 25.937
        },
        "CZK": {
            "ID": "R01760",
            "NumCode": "203",
            "CharCode": "CZK",
            "Nominal": 10,
            "Name": "Чешских крон",
            "Value": 33.1988,
            "Previous": 33.9559
        },
        "SEK": {
            "ID": "R01770",
            "NumCode": "752",
            "CharCode": "SEK",
            "Nominal": 10,
            "Name": "Шведских крон",
            "Value": 78.9933,
            "Previous": 80.5488
        },
        "CHF": {
            "ID": "R01775",
            "NumCode": "756",
            "CharCode": "CHF",
            "Nominal": 1,
            "Name": "Швейцарский франк",
            "Value": 80.0365,
            "Previous": 81.7219
        },
        "ZAR": {
            "ID": "R01810",
            "NumCode": "710",
            "CharCode": "ZAR",
            "Nominal": 10,
            "Name": "Южноафриканских рэндов",
            "Value": 50.8707,
            "Previous": 51.8031
        },
        "KRW": {
            "ID": "R01815",
            "NumCode": "410",
            "CharCode": "KRW",
            "Nominal": 1000,
            "Name": "Вон Республики Корея",
            "Value": 61.0971,
            "Previous": 62.5295
        },
        "JPY": {
            "ID": "R01820",
            "NumCode": "392",
            "CharCode": "JPY",
            "Nominal": 100,
            "Name": "Японских иен",
            "Value": 60.363,
            "Previous": 61.6748
        }
    }
}